Arguments: 
  /Users/1002871/.brew/Cellar/node/17.4.0/bin/node /Users/1002871/.brew/Cellar/yarn/1.22.17_2/libexec/bin/yarn.js add promp-sync

PATH: 
  /Users/1002871/.brew/bin:/Users/1002871/.brew/sbin:/usr/local/bin:/usr/bin:/bin:/usr/sbin:/sbin:/Users/1002871/.cargo/bin

Yarn version: 
  1.22.17

Node version: 
  17.4.0

Platform: 
  darwin arm64

Trace: 
  Error: https://registry.yarnpkg.com/promp-sync: Not found
      at Request.params.callback [as _callback] (/Users/1002871/.brew/Cellar/yarn/1.22.17_2/libexec/lib/cli.js:67029:18)
      at Request.self.callback (/Users/1002871/.brew/Cellar/yarn/1.22.17_2/libexec/lib/cli.js:140883:22)
      at Request.emit (node:events:520:28)
      at Request.<anonymous> (/Users/1002871/.brew/Cellar/yarn/1.22.17_2/libexec/lib/cli.js:141855:10)
      at Request.emit (node:events:520:28)
      at IncomingMessage.<anonymous> (/Users/1002871/.brew/Cellar/yarn/1.22.17_2/libexec/lib/cli.js:141777:12)
      at Object.onceWrapper (node:events:639:28)
      at IncomingMessage.emit (node:events:532:35)
      at endReadableNT (node:internal/streams/readable:1343:12)
      at processTicksAndRejections (node:internal/process/task_queues:83:21)

npm manifest: 
  No manifest

yarn manifest: 
  No manifest

Lockfile: 
  No lockfile
